\relax 
\providecommand\hyper@newdestlabel[2]{}
\catcode `"\active 
\providecommand\HyperFirstAtBeginDocument{\AtBeginDocument}
\HyperFirstAtBeginDocument{\ifx\hyper@anchor\@undefined
\global\let\oldcontentsline\contentsline
\gdef\contentsline#1#2#3#4{\oldcontentsline{#1}{#2}{#3}}
\global\let\oldnewlabel\newlabel
\gdef\newlabel#1#2{\newlabelxx{#1}#2}
\gdef\newlabelxx#1#2#3#4#5#6{\oldnewlabel{#1}{{#2}{#3}}}
\AtEndDocument{\ifx\hyper@anchor\@undefined
\let\contentsline\oldcontentsline
\let\newlabel\oldnewlabel
\fi}
\fi}
\global\let\hyper@last\relax 
\gdef\HyperFirstAtBeginDocument#1{#1}
\providecommand\HyField@AuxAddToFields[1]{}
\providecommand\HyField@AuxAddToCoFields[2]{}
\select@language{brazil}
\@writefile{toc}{\select@language{brazil}}
\@writefile{lof}{\select@language{brazil}}
\@writefile{lot}{\select@language{brazil}}
\@writefile{toc}{\contentsline {section}{\numberline {1}Descri\IeC {\c c}\IeC {\~a}o do Problema}{3}{section.1}}
\@writefile{toc}{\contentsline {section}{\numberline {2}Problema}{3}{section.2}}
\@writefile{toc}{\contentsline {section}{\numberline {3}Proposta e Solu\IeC {\c c}\IeC {\~a}o}{3}{section.3}}
\@writefile{toc}{\contentsline {section}{\numberline {4}Implementa\IeC {\c c}\IeC {\~o}es}{3}{section.4}}
\@writefile{toc}{\contentsline {subsection}{\numberline {4.1}Algoritmo de For\IeC {\c c}a Bruta}{3}{subsection.4.1}}
\@writefile{toc}{\contentsline {subsection}{\numberline {4.2}Algoritmo de Vizinho mais Pr\IeC {\'o}ximo}{5}{subsection.4.2}}
\@writefile{toc}{\contentsline {section}{\numberline {5}Resultados}{7}{section.5}}
\@writefile{lof}{\contentsline {figure}{\numberline {1}{\ignorespaces Matriz de entrada com 4 cidades e caminho percorrido pelo caixeiro, com o tempo de execu\IeC {\c c}\IeC {\~a}o.}}{7}{figure.1}}
\newlabel{fig:fb-4}{{1}{7}{Matriz de entrada com 4 cidades e caminho percorrido pelo caixeiro, com o tempo de execução}{figure.1}{}}
\@writefile{lof}{\contentsline {figure}{\numberline {2}{\ignorespaces Matriz de entrada com 5 cidades e caminho percorrido pelo caixeiro, com o tempo de execu\IeC {\c c}\IeC {\~a}o.}}{8}{figure.2}}
\newlabel{fig:fb-5}{{2}{8}{Matriz de entrada com 5 cidades e caminho percorrido pelo caixeiro, com o tempo de execução}{figure.2}{}}
\@writefile{lof}{\contentsline {figure}{\numberline {3}{\ignorespaces Matriz de entrada com 6 cidades e caminho percorrido pelo caixeiro, com o tempo de execu\IeC {\c c}\IeC {\~a}o.}}{8}{figure.3}}
\newlabel{fig:fb-6}{{3}{8}{Matriz de entrada com 6 cidades e caminho percorrido pelo caixeiro, com o tempo de execução}{figure.3}{}}
\@writefile{lof}{\contentsline {figure}{\numberline {4}{\ignorespaces Matriz de entrada com 7 cidades e caminho percorrido pelo caixeiro, com o tempo de execu\IeC {\c c}\IeC {\~a}o.}}{8}{figure.4}}
\newlabel{fig:fb-7}{{4}{8}{Matriz de entrada com 7 cidades e caminho percorrido pelo caixeiro, com o tempo de execução}{figure.4}{}}
\@writefile{lof}{\contentsline {figure}{\numberline {5}{\ignorespaces Matriz de entrada com 8 cidades e caminho percorrido pelo caixeiro, com o tempo de execu\IeC {\c c}\IeC {\~a}o.}}{9}{figure.5}}
\newlabel{fig:fb-8}{{5}{9}{Matriz de entrada com 8 cidades e caminho percorrido pelo caixeiro, com o tempo de execução}{figure.5}{}}
\@writefile{lof}{\contentsline {figure}{\numberline {6}{\ignorespaces Matriz de entrada com 9 cidades e caminho percorrido pelo caixeiro, com o tempo de execu\IeC {\c c}\IeC {\~a}o.}}{9}{figure.6}}
\newlabel{fig:fb-9}{{6}{9}{Matriz de entrada com 9 cidades e caminho percorrido pelo caixeiro, com o tempo de execução}{figure.6}{}}
\@writefile{lof}{\contentsline {figure}{\numberline {7}{\ignorespaces Matriz de entrada com 10 cidades e caminho percorrido pelo caixeiro, com o tempo de execu\IeC {\c c}\IeC {\~a}o.}}{9}{figure.7}}
\newlabel{fig:fb-10}{{7}{9}{Matriz de entrada com 10 cidades e caminho percorrido pelo caixeiro, com o tempo de execução}{figure.7}{}}
\@writefile{lof}{\contentsline {figure}{\numberline {8}{\ignorespaces Matriz de entrada com 11 cidades e caminho percorrido pelo caixeiro, com o tempo de execu\IeC {\c c}\IeC {\~a}o.}}{9}{figure.8}}
\newlabel{fig:fb-11}{{8}{9}{Matriz de entrada com 11 cidades e caminho percorrido pelo caixeiro, com o tempo de execução}{figure.8}{}}
\@writefile{lof}{\contentsline {figure}{\numberline {9}{\ignorespaces Matriz de entrada com 12 cidades e caminho percorrido pelo caixeiro, com o tempo de execu\IeC {\c c}\IeC {\~a}o.}}{10}{figure.9}}
\newlabel{fig:fb-12}{{9}{10}{Matriz de entrada com 12 cidades e caminho percorrido pelo caixeiro, com o tempo de execução}{figure.9}{}}
\@writefile{lof}{\contentsline {figure}{\numberline {10}{\ignorespaces Matriz de entrada com 13 cidades e caminho percorrido pelo caixeiro, com o tempo de execu\IeC {\c c}\IeC {\~a}o.}}{10}{figure.10}}
\newlabel{fig:fb-13}{{10}{10}{Matriz de entrada com 13 cidades e caminho percorrido pelo caixeiro, com o tempo de execução}{figure.10}{}}
\@writefile{lof}{\contentsline {figure}{\numberline {11}{\ignorespaces Arquivo de entra \texttt  {\_pa561}}}{11}{figure.11}}
\newlabel{fig:fmp-1}{{11}{11}{Arquivo de entra \texttt {\_pa561}}{figure.11}{}}
\@writefile{lof}{\contentsline {figure}{\numberline {12}{\ignorespaces Arquivo de entra \texttt  {\_si1032}}}{11}{figure.12}}
\newlabel{fig:fmp-2}{{12}{11}{Arquivo de entra \texttt {\_si1032}}{figure.12}{}}
\@writefile{lof}{\contentsline {figure}{\numberline {13}{\ignorespaces Arquivo de entra \texttt  {\_si535}}}{11}{figure.13}}
\newlabel{fig:fmp-3}{{13}{11}{Arquivo de entra \texttt {\_si535}}{figure.13}{}}
