\select@language {brazil}
\contentsline {section}{\numberline {1}Descri\IeC {\c c}\IeC {\~a}o do Problema}{3}{section.1}
\contentsline {section}{\numberline {2}Problema}{3}{section.2}
\contentsline {section}{\numberline {3}Proposta e Solu\IeC {\c c}\IeC {\~a}o}{3}{section.3}
\contentsline {section}{\numberline {4}Implementa\IeC {\c c}\IeC {\~o}es}{3}{section.4}
\contentsline {subsection}{\numberline {4.1}Algoritmo de For\IeC {\c c}a Bruta}{3}{subsection.4.1}
\contentsline {subsection}{\numberline {4.2}Algoritmo de Vizinho mais Pr\IeC {\'o}ximo}{5}{subsection.4.2}
\contentsline {section}{\numberline {5}Resultados}{7}{section.5}
